<svg xmlns="http://www.w3.org/2000/svg" width="104" height="104" viewBox="0 0 104 104">
    <g fill="none" fill-rule="nonzero" transform="translate(2 2)">
        <path fill="#D8D8D8" d="M28.719 64.687h-2.876a3.425 3.425 0 0 1-3.421-3.42v-8.175a3.425 3.425 0 0 1 3.42-3.42h2.877v15.015zM79.578 61.268a3.425 3.425 0 0 1-3.42 3.42H73.28V49.673h2.876a3.425 3.425 0 0 1 3.421 3.42v8.175z"/>
        <path fill="#000" stroke="#000" stroke-width=".5" d="M77.883 47.511v-.624c0-6.328-2.25-12.479-6.337-17.32-4.037-4.781-9.627-8.025-15.74-9.133a1.211 1.211 0 0 0-.432 2.383c11.639 2.11 20.087 12.232 20.087 24.07v.364h-2.422v-.364c0-12.153-9.887-22.04-22.039-22.04-12.152 0-22.04 9.887-22.04 22.04v.363h-2.42v-.363a24.383 24.383 0 0 1 20.39-24.123 1.211 1.211 0 0 0-.4-2.388c-6.191 1.04-11.863 4.26-15.97 9.067a26.873 26.873 0 0 0-6.443 17.444v.623A5.853 5.853 0 0 0 20 53.092v8.175a5.85 5.85 0 0 0 5.843 5.842h3.4a3.634 3.634 0 0 0 3.109 1.757 3.637 3.637 0 0 0 3.632-3.633V49.127a3.637 3.637 0 0 0-4.559-3.512C32.083 35.388 40.61 27.269 51 27.269c10.39 0 18.917 8.12 19.575 18.346a3.637 3.637 0 0 0-4.56 3.513v3.022a1.21 1.21 0 1 0 2.422 0v-3.023c0-.667.544-1.21 1.211-1.21.668 0 1.211.543 1.211 1.21V65.233c0 .667-.543 1.21-1.21 1.21-.668 0-1.212-.543-1.212-1.21v-2.79a1.21 1.21 0 1 0-2.421 0v2.79a3.637 3.637 0 0 0 4.843 3.424v.79a2.38 2.38 0 0 1-2.377 2.377h-11.11a4.125 4.125 0 0 0-3.935-2.906h-4.843a4.122 4.122 0 0 0-4.118 4.117 4.122 4.122 0 0 0 4.118 4.117h4.843a4.124 4.124 0 0 0 3.935-2.906h11.11c2.646 0 4.8-2.153 4.8-4.8V67.11h2.875A5.85 5.85 0 0 0 82 61.268v-8.175a5.853 5.853 0 0 0-4.117-5.582zM28.719 64.687h-2.876a3.425 3.425 0 0 1-3.421-3.42v-8.175a3.425 3.425 0 0 1 3.42-3.42h2.877v15.015zm3.633-16.77c.667 0 1.21.543 1.21 1.21v16.106c0 .667-.543 1.21-1.21 1.21-.668 0-1.211-.543-1.211-1.21V49.127c0-.667.543-1.21 1.21-1.21zM53.437 74.73h-4.843c-.935 0-1.696-.76-1.696-1.696 0-.935.76-1.695 1.696-1.695h4.843c.935 0 1.696.76 1.696 1.695s-.76 1.696-1.696 1.696zm26.141-13.463a3.425 3.425 0 0 1-3.42 3.42H73.28V49.673h2.876a3.425 3.425 0 0 1 3.421 3.42v8.175z"/>
        <path fill="#000" stroke="#000" stroke-width=".5" d="M51.105 20.004H51a1.21 1.21 0 1 0 0 2.422h.101a1.211 1.211 0 0 0 .004-2.422zM68.083 56.324a1.22 1.22 0 0 0-.856-.354c-.319 0-.631.13-.857.354a1.22 1.22 0 0 0-.354.857c0 .318.13.63.354.856.226.225.538.355.857.355.318 0 .63-.13.856-.355a1.22 1.22 0 0 0 .355-.856c0-.319-.13-.631-.355-.857z"/>
        <circle cx="50" cy="50" r="50" stroke="#000" stroke-width="3.5"/>
    </g>
</svg>
