<svg xmlns="http://www.w3.org/2000/svg" width="104" height="104" viewBox="0 0 104 104">
    <g fill="none" fill-rule="nonzero" transform="translate(2 2)">
        <g transform="translate(21 21)">
            <path fill="#ED1C24" d="M55.037 14.756c-3.939-6.82-10.297-11.7-17.905-13.738-7.608-2.04-15.554-.993-22.376 2.945-6.82 3.939-11.7 10.297-13.739 17.905-2.038 7.608-.992 15.555 2.946 22.376 3.938 6.82 10.297 11.7 17.905 13.738 2.54.681 5.118 1.018 7.68 1.018 5.11 0 10.152-1.34 14.696-3.963 6.82-3.938 11.7-10.297 13.739-17.905 2.038-7.608.992-15.554-2.946-22.376zm-.02 21.581c-1.827 6.816-6.198 12.512-12.309 16.04-6.11 3.529-13.23 4.466-20.045 2.64-6.816-1.827-12.513-6.198-16.04-12.308-3.529-6.111-4.466-13.23-2.64-20.046 1.827-6.816 6.198-12.512 12.309-16.04 4.07-2.35 8.587-3.55 13.165-3.55 2.294 0 4.605.3 6.88.91 6.815 1.827 12.512 6.198 16.04 12.309 3.528 6.11 4.466 13.23 2.64 20.045z"/>
            <path fill="#F7D5D6" d="M55.016 36.337c-1.826 6.816-6.197 12.512-12.308 16.04-6.11 3.529-13.23 4.466-20.045 2.64-6.816-1.827-12.513-6.198-16.04-12.308-3.529-6.111-4.466-13.23-2.64-20.046 1.827-6.816 6.198-12.512 12.309-16.04 4.07-2.35 8.587-3.55 13.165-3.55 2.294 0 4.605.3 6.88.91 6.815 1.827 12.512 6.198 16.04 12.309 3.528 6.11 4.466 13.23 2.64 20.045z"/>
            <path fill="#ED1C24" d="M43.703 27.232L24.82 16.241a3.147 3.147 0 0 0-3.2 0 3.199 3.199 0 0 0-1.601 2.794v21.983c0 1.167.598 2.211 1.6 2.795.501.291 1.05.437 1.6.437s1.1-.146 1.601-.438l18.884-10.99a3.199 3.199 0 0 0 1.6-2.795 3.198 3.198 0 0 0-1.6-2.795zm-1.53 2.919L23.29 41.142a.126.126 0 0 1-.141 0c-.071-.041-.071-.097-.071-.124V19.035c0-.026 0-.082.07-.124a.143.143 0 0 1 .073-.021c.032 0 .056.013.07.021l18.884 10.992c.023.013.07.041.07.124 0 .082-.047.11-.07.124z"/>
            <path fill="#FFF" d="M42.174 30.15L23.289 41.143a.126.126 0 0 1-.141 0c-.071-.041-.071-.097-.071-.124V19.035c0-.026 0-.082.07-.124a.143.143 0 0 1 .073-.021c.032 0 .056.013.07.021l18.884 10.992c.023.013.07.041.07.124 0 .082-.047.11-.07.124z"/>
            <path fill="#ED1C24" d="M47.094 15.346c-3.594-4.888-8.997-8.172-14.824-9.01-.826-.119-1.59.49-1.702 1.361-.113.87.466 1.673 1.293 1.792 5.048.726 9.73 3.57 12.843 7.805.298.405.745.617 1.196.617.324 0 .65-.109.924-.333.66-.538.781-1.537.27-2.232z"/>
            <circle cx="48.5" cy="20.5" r="1.5" fill="#ED1C24"/>
        </g>
        <circle cx="50" cy="50" r="50" stroke="#ED1C24" stroke-width="3.5"/>
    </g>
</svg>
