<svg xmlns="http://www.w3.org/2000/svg" width="11" height="11" viewBox="0 0 11 11">
    <path fill="#4A4A4A" fill-rule="evenodd" d="M1.576 1.576C2.627.526 3.893 0 5.375 0c1.482 0 2.748.525 3.799 1.576 1.05 1.051 1.576 2.317 1.576 3.799 0 1.482-.525 2.748-1.576 3.799-1.051 1.05-2.317 1.576-3.799 1.576-1.482 0-2.748-.525-3.799-1.576C.526 8.123 0 6.857 0 5.375c0-1.482.525-2.748 1.576-3.799zm3.23 8.373l.285-.569a.485.485 0 0 0 .051-.22c0-.077-.043-.15-.129-.219a13.48 13.48 0 0 1-.594-.543c-.035-.034-.086-.133-.155-.297-.07-.163-.095-.262-.078-.297a2.17 2.17 0 0 0 .207-.62c.052-.207-.06-.396-.336-.569a2.353 2.353 0 0 1-.362-.258 26.691 26.691 0 0 0-.75-.62c-.31-.224-.481-.388-.516-.491-.155-.448-.241-.69-.258-.724a1.628 1.628 0 0 1-.285-.71 2.446 2.446 0 0 1 .026-.789c0-.12-.017-.335-.051-.646C1.137 3.204.775 4.204.775 5.375c0 1.275.448 2.36 1.344 3.256.74.74 1.637 1.18 2.687 1.318zM8.631 8.63a4.536 4.536 0 0 0 1.215-2.119l-.491-.052c-.362-.413-.56-.8-.595-1.163a7.247 7.247 0 0 1-.026-.723c0-.327-.017-.577-.051-.75-.035-.155-.151-.37-.35-.646-.197-.275-.314-.456-.348-.542-.052-.12-.134-.302-.246-.543a7.77 7.77 0 0 0-.27-.543c.016 0 .047.01.09.026a.277.277 0 0 1 .09.052c.172-.034.293-.052.362-.052C7.46 1.18 6.805.93 6.047.826v.208l.103.232-.362.336-.232-.077-.259-.259-.258-.31-.362-.13c-.361.053-.75.165-1.163.337v.18A1 1 0 0 1 3.8 1.24c.137-.034.24-.069.31-.103.034-.017.172.06.413.233-.017.017-.112.099-.284.245-.172.147-.267.246-.284.297 0 .017.03.056.09.117.06.06.09.107.09.142 0 .051-.004.125-.012.22a2.601 2.601 0 0 0-.013.219c.362-.362.551-.543.568-.543.155-.034.345.04.569.22.224.18.353.332.387.452.018.052-.017.125-.103.22s-.224.22-.413.375c-.19.155-.302.25-.336.284-.035.034-.112.09-.233.168a.998.998 0 0 0-.258.22.225.225 0 0 0-.026.232c.172.345.215.551.129.62-.034.035-.077.039-.13.013a.322.322 0 0 1-.115-.09 3.352 3.352 0 0 0-.194-.233c-.104-.12-.431-.18-.982-.18 0 .55.129.92.387 1.11.707.517 1.112.801 1.215.853.103.052.31.052.62 0s.508-.043.594.026c.569.396.974.646 1.215.75.155.051.327.167.517.348.19.181.241.332.155.452-.224.345-.345.543-.362.595-.138.293-.31.508-.517.646-.224.172-.405.422-.542.75A4.579 4.579 0 0 0 8.63 8.63z"/>
</svg>
