<svg xmlns="http://www.w3.org/2000/svg" width="11" height="11" viewBox="0 0 11 11">
    <path fill="#C8C8C8" fill-rule="evenodd" d="M7.022 4.291a2.734 2.734 0 0 0-2.73-2.73A2.734 2.734 0 0 0 1.56 4.29a2.734 2.734 0 0 0 2.731 2.731 2.734 2.734 0 0 0 2.731-2.73zm3.12 5.072c0 .426-.353.78-.78.78a.765.765 0 0 1-.548-.232l-2.09-2.084A4.29 4.29 0 0 1 0 4.292 4.29 4.29 0 0 1 4.29 0a4.29 4.29 0 0 1 3.536 6.723l2.09 2.091c.14.14.226.341.226.549z"/>
</svg>
